{"videos": {
		"android": [{
				"id": "26643213",
				"title": "Intro - ANDROID",
				"dateCreated": "May 5, 2017 at 1:23am",
				"duration": "2:22",
				"thumbnailUrl": "1f11aac4f3b949b51a85a682b12802db4530773a",
				"videoUid": "3ohz3tx2ge"
			},
			{
				"id": "27131797",
				"title": "Weighing Yourself - ANDROID",
				"dateCreated": "Jun 1, 2017 at 9:30pm",
				"duration": "0:26",
				"thumbnailUrl": "5c67f10472d4641df23e0c3f88dbe4cf7aa8fc44",
				"videoUid": "9e283y3ltb"
			},
			{
				"id": "27131539",
				"title": "Food Logging - ANDROID",
				"dateCreated": "Jun 2, 2017 at 12:50am",
				"duration": "2:20",
				"thumbnailUrl": "2af40b7db04d72b83fb97dfb9a290a5f70594349",
				"videoUid": "15s3l8uoia"
			},
			{
				"id": "26643214",
				"title": "Installing your Fitbit - ANDROID",
				"dateCreated": "July 18, 2017 at 3:15pm",
				"duration": "1:20",
				"thumbnailUrl": "3390af721214e68ff76133e6a9881e1ba7a965d2",
				"videoUid": "7n3uftfvbs"
			},
			{
				"id": "26643215",
				"title": "Creating My Motivation Image - ANDROID",
				"dateCreated": "July 18, 2017 at 4:15pm",
				"duration": "0:28",
				"thumbnailUrl": "03b364cacc7c63f6e4f0a7725efb2bc0b1ed5d13",
				"videoUid": "fjccqxpzk8"
			}

		]
	}
}
